03/25/22 13:13

sql1.py has not been modified yet

-------------------------------------------------------------------------------

03/28/22 12:26

sql1.py has not been modified yet

-------------------------------------------------------------------------------

03/29/22 16:54

sql1.py has not been modified yet

-------------------------------------------------------------------------------

03/31/22 21:43

sql1.py has not been modified yet

-------------------------------------------------------------------------------

04/20/22 10:55

Problem 1 (5 points):
Score += 5

Problem 2 (5 points):
Score += 5

Problem 3 (5 points):
Score += 5

Problem 4 (10 points):
Score += 10

Problem 5 (10 points):
Score += 10

Problem 6 (10 points):
Score += 10

Code Quality (5 points):
Score += 5

Total score: 50/50 = 100.0%

Excellent!


Comments:
	Excellent!

-------------------------------------------------------------------------------

