01/27/22 19:12

newtons_method.py has not been modified yet

-------------------------------------------------------------------------------

01/27/22 19:32

newtons_method.py has not been modified yet

-------------------------------------------------------------------------------

02/04/22 14:39

Problem 1 (5 points):
Score += 5

Problem 2 (5 points):
prob2(35, 15, 2500, 7500) failed
	Correct response: 0.009938822516920501
	Student response: 0.011670233498440714
Score += 2

Problem 3 (5 points):
Score += 5

Problem 4 (5 points):
TypeError: unsupported operand type(s) for *: 'NoneType' and 'float'

Problem 5 (5 points):
Score += 5

Problem 6 (10 points):
Score += 10

Problem 7 (10 points):
Score += 10

Code Quality (5 points):
Score += 5

Total score: 42/50 = 84.0%


Comments:
	Great job!

-------------------------------------------------------------------------------

